<svg width="20" height="44" viewBox="0 0 20 44" fill="none" xmlns="http://www.w3.org/2000/svg">
<path d="M0.5 0H19.5V39C19.5 41.7614 17.2614 44 14.5 44H5.5C2.73858 44 0.5 41.7614 0.5 39V0Z" fill="#C4C4C4"/>
<path d="M10.088 24.056C10.5893 23.384 11.0053 22.76 11.336 22.184C11.6773 21.608 11.848 21.0747 11.848 20.584C11.848 19.9867 11.688 19.5333 11.368 19.224C11.0587 18.904 10.5893 18.744 9.96 18.744C9.384 18.744 8.92 18.904 8.568 19.224C8.216 19.544 7.92267 19.9333 7.688 20.392L6.2 19.592C6.57333 18.8773 7.064 18.2747 7.672 17.784C8.28 17.2933 9.05867 17.048 10.008 17.048C11.192 17.048 12.0987 17.3573 12.728 17.976C13.3573 18.584 13.672 19.384 13.672 20.376C13.672 21.6667 13.032 23.096 11.752 24.664L9.576 27.416H14.136V29H6.136L10.088 24.056Z" fill="black"/>
</svg>
